  [1m[36m (16.2ms)[0m  [1mCREATE TABLE "schema_migrations" ("version" varchar(255) NOT NULL) [0m
  [1m[35m (0.2ms)[0m  select sqlite_version(*)
  [1m[36m (10.7ms)[0m  [1mCREATE UNIQUE INDEX "unique_schema_migrations" ON "schema_migrations" ("version")[0m
  [1m[35mActiveRecord::SchemaMigration Load (0.2ms)[0m  SELECT "schema_migrations".* FROM "schema_migrations"
Migrating to CreatePosts (20140819055904)
  [1m[36m (0.1ms)[0m  [1mbegin transaction[0m
  [1m[35m (0.6ms)[0m  CREATE TABLE "posts" ("id" INTEGER PRIMARY KEY AUTOINCREMENT NOT NULL, "title" varchar(255), "body" text, "created_at" datetime, "updated_at" datetime) 
  [1m[36mSQL (0.2ms)[0m  [1mINSERT INTO "schema_migrations" ("version") VALUES (?)[0m  [["version", "20140819055904"]]
  [1m[35m (17.0ms)[0m  commit transaction
Migrating to CreateComments (20140819055936)
  [1m[36m (0.2ms)[0m  [1mbegin transaction[0m
  [1m[35m (0.5ms)[0m  CREATE TABLE "comments" ("id" INTEGER PRIMARY KEY AUTOINCREMENT NOT NULL, "post_id" integer, "body" text, "created_at" datetime, "updated_at" datetime) 
  [1m[36mSQL (0.3ms)[0m  [1mINSERT INTO "schema_migrations" ("version") VALUES (?)[0m  [["version", "20140819055936"]]
  [1m[35m (13.2ms)[0m  commit transaction
  [1m[36mActiveRecord::SchemaMigration Load (0.1ms)[0m  [1mSELECT "schema_migrations".* FROM "schema_migrations"[0m


Started GET "/posts/" for 127.0.0.1 at 2014-08-19 10:00:35 +0400
  [1m[36mActiveRecord::SchemaMigration Load (0.1ms)[0m  [1mSELECT "schema_migrations".* FROM "schema_migrations"[0m
Processing by PostsController#index as HTML
  [1m[35mPost Load (0.2ms)[0m  SELECT "posts".* FROM "posts"
  Rendered posts/index.html.erb within layouts/application (2.5ms)
Completed 200 OK in 535ms (Views: 517.5ms | ActiveRecord: 0.2ms)


Started GET "/assets/comments.css?body=1" for 127.0.0.1 at 2014-08-19 10:00:36 +0400


Started GET "/assets/posts.css?body=1" for 127.0.0.1 at 2014-08-19 10:00:36 +0400


Started GET "/assets/scaffolds.css?body=1" for 127.0.0.1 at 2014-08-19 10:00:36 +0400


Started GET "/assets/application.css?body=1" for 127.0.0.1 at 2014-08-19 10:00:36 +0400


Started GET "/assets/jquery.js?body=1" for 127.0.0.1 at 2014-08-19 10:00:36 +0400


Started GET "/assets/jquery_ujs.js?body=1" for 127.0.0.1 at 2014-08-19 10:00:36 +0400


Started GET "/assets/turbolinks.js?body=1" for 127.0.0.1 at 2014-08-19 10:00:36 +0400


Started GET "/assets/comments.js?body=1" for 127.0.0.1 at 2014-08-19 10:00:36 +0400


Started GET "/assets/posts.js?body=1" for 127.0.0.1 at 2014-08-19 10:00:36 +0400


Started GET "/assets/application.js?body=1" for 127.0.0.1 at 2014-08-19 10:00:36 +0400


Started GET "/posts/new" for 127.0.0.1 at 2014-08-19 10:00:37 +0400
Processing by PostsController#new as HTML
  Rendered posts/_form.html.erb (45.9ms)
  Rendered posts/new.html.erb within layouts/application (67.7ms)
Completed 200 OK in 72ms (Views: 70.4ms | ActiveRecord: 0.3ms)


Started POST "/posts" for 127.0.0.1 at 2014-08-19 10:00:55 +0400
Processing by PostsController#create as HTML
  Parameters: {"utf8"=>"✓", "authenticity_token"=>"93u7VdcnTNj3Ov2Kz2J4rQg1Hceim0/kzqw0LQbh18c=", "post"=>{"title"=>"My first post", "body"=>"I did it!"}, "commit"=>"Create Post"}
  [1m[36m (0.1ms)[0m  [1mbegin transaction[0m
  [1m[35mSQL (0.4ms)[0m  INSERT INTO "posts" ("body", "created_at", "title", "updated_at") VALUES (?, ?, ?, ?)  [["body", "I did it!"], ["created_at", "2014-08-19 06:00:55.457515"], ["title", "My first post"], ["updated_at", "2014-08-19 06:00:55.457515"]]
  [1m[36m (8.4ms)[0m  [1mcommit transaction[0m
Redirected to http://localhost:3000/posts/1
Completed 302 Found in 20ms (ActiveRecord: 8.8ms)


Started GET "/posts/1" for 127.0.0.1 at 2014-08-19 10:00:55 +0400
Processing by PostsController#show as HTML
  Parameters: {"id"=>"1"}
  [1m[35mPost Load (0.4ms)[0m  SELECT  "posts".* FROM "posts"  WHERE "posts"."id" = ? LIMIT 1  [["id", 1]]
  Rendered posts/show.html.erb within layouts/application (2.2ms)
Completed 200 OK in 13ms (Views: 8.8ms | ActiveRecord: 0.4ms)


Started GET "/assets/comments.css?body=1" for 127.0.0.1 at 2014-08-19 10:00:55 +0400


Started GET "/assets/posts.css?body=1" for 127.0.0.1 at 2014-08-19 10:00:55 +0400


Started GET "/assets/application.css?body=1" for 127.0.0.1 at 2014-08-19 10:00:55 +0400


Started GET "/assets/scaffolds.css?body=1" for 127.0.0.1 at 2014-08-19 10:00:55 +0400


Started GET "/assets/jquery_ujs.js?body=1" for 127.0.0.1 at 2014-08-19 10:00:55 +0400


Started GET "/assets/jquery.js?body=1" for 127.0.0.1 at 2014-08-19 10:00:55 +0400


Started GET "/assets/turbolinks.js?body=1" for 127.0.0.1 at 2014-08-19 10:00:55 +0400


Started GET "/assets/comments.js?body=1" for 127.0.0.1 at 2014-08-19 10:00:55 +0400


Started GET "/assets/posts.js?body=1" for 127.0.0.1 at 2014-08-19 10:00:55 +0400


Started GET "/assets/application.js?body=1" for 127.0.0.1 at 2014-08-19 10:00:55 +0400


Started GET "/coments/" for 127.0.0.1 at 2014-08-19 10:01:01 +0400

ActionController::RoutingError (No route matches [GET] "/coments"):
  actionpack (4.1.4) lib/action_dispatch/middleware/debug_exceptions.rb:21:in `call'
  actionpack (4.1.4) lib/action_dispatch/middleware/show_exceptions.rb:30:in `call'
  railties (4.1.4) lib/rails/rack/logger.rb:38:in `call_app'
  railties (4.1.4) lib/rails/rack/logger.rb:20:in `block in call'
  activesupport (4.1.4) lib/active_support/tagged_logging.rb:68:in `block in tagged'
  activesupport (4.1.4) lib/active_support/tagged_logging.rb:26:in `tagged'
  activesupport (4.1.4) lib/active_support/tagged_logging.rb:68:in `tagged'
  railties (4.1.4) lib/rails/rack/logger.rb:20:in `call'
  actionpack (4.1.4) lib/action_dispatch/middleware/request_id.rb:21:in `call'
  rack (1.5.2) lib/rack/methodoverride.rb:21:in `call'
  rack (1.5.2) lib/rack/runtime.rb:17:in `call'
  activesupport (4.1.4) lib/active_support/cache/strategy/local_cache_middleware.rb:26:in `call'
  rack (1.5.2) lib/rack/lock.rb:17:in `call'
  actionpack (4.1.4) lib/action_dispatch/middleware/static.rb:64:in `call'
  rack (1.5.2) lib/rack/sendfile.rb:112:in `call'
  railties (4.1.4) lib/rails/engine.rb:514:in `call'
  railties (4.1.4) lib/rails/application.rb:144:in `call'
  rack (1.5.2) lib/rack/lock.rb:17:in `call'
  rack (1.5.2) lib/rack/content_length.rb:14:in `call'
  rack (1.5.2) lib/rack/handler/webrick.rb:60:in `service'
  /usr/lib/ruby/1.9.1/webrick/httpserver.rb:138:in `service'
  /usr/lib/ruby/1.9.1/webrick/httpserver.rb:94:in `run'
  /usr/lib/ruby/1.9.1/webrick/server.rb:191:in `block in start_thread'


  Rendered /var/lib/gems/1.9.1/gems/actionpack-4.1.4/lib/action_dispatch/middleware/templates/rescues/_trace.html.erb (0.9ms)
  Rendered /var/lib/gems/1.9.1/gems/actionpack-4.1.4/lib/action_dispatch/middleware/templates/routes/_route.html.erb (1.1ms)
  Rendered /var/lib/gems/1.9.1/gems/actionpack-4.1.4/lib/action_dispatch/middleware/templates/routes/_table.html.erb (24.7ms)
  Rendered /var/lib/gems/1.9.1/gems/actionpack-4.1.4/lib/action_dispatch/middleware/templates/rescues/routing_error.html.erb within rescues/layout (46.8ms)


Started GET "/comments/" for 127.0.0.1 at 2014-08-19 10:01:04 +0400
Processing by CommentsController#index as HTML
  [1m[36mComment Load (0.2ms)[0m  [1mSELECT "comments".* FROM "comments"[0m
  Rendered comments/index.html.erb within layouts/application (1.5ms)
Completed 200 OK in 7ms (Views: 4.9ms | ActiveRecord: 0.2ms)


Started GET "/assets/comments.css?body=1" for 127.0.0.1 at 2014-08-19 10:01:05 +0400


Started GET "/assets/application.css?body=1" for 127.0.0.1 at 2014-08-19 10:01:05 +0400


Started GET "/assets/jquery_ujs.js?body=1" for 127.0.0.1 at 2014-08-19 10:01:05 +0400


Started GET "/assets/scaffolds.css?body=1" for 127.0.0.1 at 2014-08-19 10:01:05 +0400


Started GET "/assets/jquery.js?body=1" for 127.0.0.1 at 2014-08-19 10:01:05 +0400


Started GET "/assets/posts.css?body=1" for 127.0.0.1 at 2014-08-19 10:01:05 +0400


Started GET "/assets/turbolinks.js?body=1" for 127.0.0.1 at 2014-08-19 10:01:05 +0400


Started GET "/assets/comments.js?body=1" for 127.0.0.1 at 2014-08-19 10:01:05 +0400


Started GET "/assets/posts.js?body=1" for 127.0.0.1 at 2014-08-19 10:01:05 +0400


Started GET "/assets/application.js?body=1" for 127.0.0.1 at 2014-08-19 10:01:05 +0400


Started GET "/comments/new" for 127.0.0.1 at 2014-08-19 10:01:06 +0400
Processing by CommentsController#new as HTML
  Rendered comments/_form.html.erb (7.4ms)
  Rendered comments/new.html.erb within layouts/application (8.7ms)
Completed 200 OK in 15ms (Views: 12.2ms | ActiveRecord: 0.6ms)


Started POST "/comments" for 127.0.0.1 at 2014-08-19 10:01:15 +0400
Processing by CommentsController#create as HTML
  Parameters: {"utf8"=>"✓", "authenticity_token"=>"93u7VdcnTNj3Ov2Kz2J4rQg1Hceim0/kzqw0LQbh18c=", "comment"=>{"post_id"=>"1", "body"=>"Great!"}, "commit"=>"Create Comment"}
  [1m[35m (0.1ms)[0m  begin transaction
  [1m[36mSQL (0.2ms)[0m  [1mINSERT INTO "comments" ("body", "created_at", "post_id", "updated_at") VALUES (?, ?, ?, ?)[0m  [["body", "Great!"], ["created_at", "2014-08-19 06:01:15.601196"], ["post_id", 1], ["updated_at", "2014-08-19 06:01:15.601196"]]
  [1m[35m (19.1ms)[0m  commit transaction
Redirected to http://localhost:3000/comments/1
Completed 302 Found in 25ms (ActiveRecord: 19.5ms)


Started GET "/comments/1" for 127.0.0.1 at 2014-08-19 10:01:15 +0400
Processing by CommentsController#show as HTML
  Parameters: {"id"=>"1"}
  [1m[36mComment Load (0.3ms)[0m  [1mSELECT  "comments".* FROM "comments"  WHERE "comments"."id" = ? LIMIT 1[0m  [["id", 1]]
  Rendered comments/show.html.erb within layouts/application (1.8ms)
Completed 200 OK in 11ms (Views: 8.7ms | ActiveRecord: 0.3ms)


Started GET "/assets/comments.css?body=1" for 127.0.0.1 at 2014-08-19 10:01:15 +0400


Started GET "/assets/posts.css?body=1" for 127.0.0.1 at 2014-08-19 10:01:15 +0400


Started GET "/assets/application.css?body=1" for 127.0.0.1 at 2014-08-19 10:01:15 +0400


Started GET "/assets/scaffolds.css?body=1" for 127.0.0.1 at 2014-08-19 10:01:15 +0400


Started GET "/assets/jquery.js?body=1" for 127.0.0.1 at 2014-08-19 10:01:15 +0400


Started GET "/assets/jquery_ujs.js?body=1" for 127.0.0.1 at 2014-08-19 10:01:15 +0400


Started GET "/assets/turbolinks.js?body=1" for 127.0.0.1 at 2014-08-19 10:01:15 +0400


Started GET "/assets/comments.js?body=1" for 127.0.0.1 at 2014-08-19 10:01:15 +0400


Started GET "/assets/posts.js?body=1" for 127.0.0.1 at 2014-08-19 10:01:15 +0400


Started GET "/assets/application.js?body=1" for 127.0.0.1 at 2014-08-19 10:01:15 +0400


Started GET "/comments/" for 127.0.0.1 at 2014-08-19 10:01:20 +0400
Processing by CommentsController#index as HTML
  [1m[35mComment Load (0.2ms)[0m  SELECT "comments".* FROM "comments"
  Rendered comments/index.html.erb within layouts/application (1.7ms)
Completed 200 OK in 5ms (Views: 4.6ms | ActiveRecord: 0.2ms)


Started GET "/assets/comments.css?body=1" for 127.0.0.1 at 2014-08-19 10:01:20 +0400


Started GET "/assets/posts.css?body=1" for 127.0.0.1 at 2014-08-19 10:01:20 +0400


Started GET "/assets/scaffolds.css?body=1" for 127.0.0.1 at 2014-08-19 10:01:20 +0400


Started GET "/assets/application.css?body=1" for 127.0.0.1 at 2014-08-19 10:01:20 +0400


Started GET "/assets/jquery.js?body=1" for 127.0.0.1 at 2014-08-19 10:01:20 +0400


Started GET "/assets/jquery_ujs.js?body=1" for 127.0.0.1 at 2014-08-19 10:01:20 +0400


Started GET "/assets/turbolinks.js?body=1" for 127.0.0.1 at 2014-08-19 10:01:20 +0400


Started GET "/assets/comments.js?body=1" for 127.0.0.1 at 2014-08-19 10:01:20 +0400


Started GET "/assets/posts.js?body=1" for 127.0.0.1 at 2014-08-19 10:01:20 +0400


Started GET "/assets/application.js?body=1" for 127.0.0.1 at 2014-08-19 10:01:20 +0400


Started GET "/comments/new" for 127.0.0.1 at 2014-08-19 10:01:23 +0400
Processing by CommentsController#new as HTML
  Rendered comments/_form.html.erb (3.9ms)
  Rendered comments/new.html.erb within layouts/application (5.4ms)
Completed 200 OK in 11ms (Views: 10.2ms | ActiveRecord: 0.0ms)


Started POST "/comments" for 127.0.0.1 at 2014-08-19 10:01:33 +0400
Processing by CommentsController#create as HTML
  Parameters: {"utf8"=>"✓", "authenticity_token"=>"93u7VdcnTNj3Ov2Kz2J4rQg1Hceim0/kzqw0LQbh18c=", "comment"=>{"post_id"=>"1", "body"=>"Congratulations!"}, "commit"=>"Create Comment"}
  [1m[36m (0.2ms)[0m  [1mbegin transaction[0m
  [1m[35mSQL (0.2ms)[0m  INSERT INTO "comments" ("body", "created_at", "post_id", "updated_at") VALUES (?, ?, ?, ?)  [["body", "Congratulations!"], ["created_at", "2014-08-19 06:01:33.314048"], ["post_id", 1], ["updated_at", "2014-08-19 06:01:33.314048"]]
  [1m[36m (20.0ms)[0m  [1mcommit transaction[0m
Redirected to http://localhost:3000/comments/2
Completed 302 Found in 26ms (ActiveRecord: 20.4ms)


Started GET "/comments/2" for 127.0.0.1 at 2014-08-19 10:01:33 +0400
Processing by CommentsController#show as HTML
  Parameters: {"id"=>"2"}
  [1m[35mComment Load (0.2ms)[0m  SELECT  "comments".* FROM "comments"  WHERE "comments"."id" = ? LIMIT 1  [["id", 2]]
  Rendered comments/show.html.erb within layouts/application (0.8ms)
Completed 200 OK in 9ms (Views: 6.8ms | ActiveRecord: 0.2ms)


Started GET "/assets/comments.css?body=1" for 127.0.0.1 at 2014-08-19 10:01:33 +0400


Started GET "/assets/scaffolds.css?body=1" for 127.0.0.1 at 2014-08-19 10:01:33 +0400


Started GET "/assets/application.css?body=1" for 127.0.0.1 at 2014-08-19 10:01:33 +0400


Started GET "/assets/jquery.js?body=1" for 127.0.0.1 at 2014-08-19 10:01:33 +0400


Started GET "/assets/posts.css?body=1" for 127.0.0.1 at 2014-08-19 10:01:33 +0400


Started GET "/assets/jquery_ujs.js?body=1" for 127.0.0.1 at 2014-08-19 10:01:33 +0400


Started GET "/assets/turbolinks.js?body=1" for 127.0.0.1 at 2014-08-19 10:01:33 +0400


Started GET "/assets/comments.js?body=1" for 127.0.0.1 at 2014-08-19 10:01:33 +0400


Started GET "/assets/posts.js?body=1" for 127.0.0.1 at 2014-08-19 10:01:33 +0400


Started GET "/assets/application.js?body=1" for 127.0.0.1 at 2014-08-19 10:01:33 +0400


Started GET "/comments/" for 127.0.0.1 at 2014-08-19 10:01:36 +0400
Processing by CommentsController#index as HTML
  [1m[36mComment Load (0.1ms)[0m  [1mSELECT "comments".* FROM "comments"[0m
  Rendered comments/index.html.erb within layouts/application (1.7ms)
Completed 200 OK in 5ms (Views: 4.6ms | ActiveRecord: 0.1ms)


Started GET "/assets/comments.css?body=1" for 127.0.0.1 at 2014-08-19 10:01:36 +0400


Started GET "/assets/posts.css?body=1" for 127.0.0.1 at 2014-08-19 10:01:36 +0400


Started GET "/assets/application.css?body=1" for 127.0.0.1 at 2014-08-19 10:01:36 +0400


Started GET "/assets/scaffolds.css?body=1" for 127.0.0.1 at 2014-08-19 10:01:36 +0400


Started GET "/assets/jquery.js?body=1" for 127.0.0.1 at 2014-08-19 10:01:36 +0400


Started GET "/assets/turbolinks.js?body=1" for 127.0.0.1 at 2014-08-19 10:01:36 +0400


Started GET "/assets/comments.js?body=1" for 127.0.0.1 at 2014-08-19 10:01:36 +0400


Started GET "/assets/jquery_ujs.js?body=1" for 127.0.0.1 at 2014-08-19 10:01:36 +0400


Started GET "/assets/posts.js?body=1" for 127.0.0.1 at 2014-08-19 10:01:36 +0400


Started GET "/assets/application.js?body=1" for 127.0.0.1 at 2014-08-19 10:01:36 +0400


Started GET "/comments/" for 127.0.0.1 at 2014-08-22 19:37:28 +0400
  [1m[36mActiveRecord::SchemaMigration Load (0.1ms)[0m  [1mSELECT "schema_migrations".* FROM "schema_migrations"[0m
Processing by CommentsController#index as HTML
  [1m[35mComment Load (0.1ms)[0m  SELECT "comments".* FROM "comments"
  Rendered comments/index.html.erb within layouts/application (6.3ms)
Completed 200 OK in 81ms (Views: 65.4ms | ActiveRecord: 0.3ms)


Started GET "/assets/comments.css?body=1" for 127.0.0.1 at 2014-08-22 19:37:28 +0400


Started GET "/assets/application.css?body=1" for 127.0.0.1 at 2014-08-22 19:37:28 +0400


Started GET "/assets/scaffolds.css?body=1" for 127.0.0.1 at 2014-08-22 19:37:28 +0400


Started GET "/assets/posts.css?body=1" for 127.0.0.1 at 2014-08-22 19:37:28 +0400


Started GET "/assets/jquery.js?body=1" for 127.0.0.1 at 2014-08-22 19:37:28 +0400


Started GET "/assets/jquery_ujs.js?body=1" for 127.0.0.1 at 2014-08-22 19:37:28 +0400


Started GET "/assets/turbolinks.js?body=1" for 127.0.0.1 at 2014-08-22 19:37:28 +0400


Started GET "/assets/comments.js?body=1" for 127.0.0.1 at 2014-08-22 19:37:28 +0400


Started GET "/assets/posts.js?body=1" for 127.0.0.1 at 2014-08-22 19:37:28 +0400


Started GET "/assets/application.js?body=1" for 127.0.0.1 at 2014-08-22 19:37:28 +0400


Started GET "/posts" for 127.0.0.1 at 2014-08-22 19:37:43 +0400
Processing by PostsController#index as HTML
  [1m[36mPost Load (0.2ms)[0m  [1mSELECT "posts".* FROM "posts"[0m
  Rendered posts/index.html.erb within layouts/application (5.0ms)
Completed 200 OK in 10ms (Views: 7.6ms | ActiveRecord: 0.4ms)


Started GET "/assets/posts.css?body=1" for 127.0.0.1 at 2014-08-22 19:37:43 +0400


Started GET "/assets/comments.css?body=1" for 127.0.0.1 at 2014-08-22 19:37:43 +0400


Started GET "/assets/scaffolds.css?body=1" for 127.0.0.1 at 2014-08-22 19:37:43 +0400


Started GET "/assets/jquery.js?body=1" for 127.0.0.1 at 2014-08-22 19:37:43 +0400


Started GET "/assets/jquery_ujs.js?body=1" for 127.0.0.1 at 2014-08-22 19:37:43 +0400


Started GET "/assets/application.css?body=1" for 127.0.0.1 at 2014-08-22 19:37:43 +0400


Started GET "/assets/turbolinks.js?body=1" for 127.0.0.1 at 2014-08-22 19:37:43 +0400


Started GET "/assets/comments.js?body=1" for 127.0.0.1 at 2014-08-22 19:37:43 +0400


Started GET "/assets/posts.js?body=1" for 127.0.0.1 at 2014-08-22 19:37:43 +0400


Started GET "/assets/application.js?body=1" for 127.0.0.1 at 2014-08-22 19:37:43 +0400
